CIND119 - Group Project
…
xgb_grid <- grid_latin_hypercube(
  tree_depth(),
  min_n(),
  loss_reduction(),
  sample_size = sample_prop(),
  finalize(mtry(), xg_train),
  learn_rate(),
  size = 60
)

xgb_grid

## # A tibble: 60 x 6
##    tree_depth min_n loss_reduction sample_size  mtry   learn_rate
##         <int> <int>          <dbl>       <dbl> <int>        <dbl>
##  1         12    22       3.13e- 6       0.150     4 0.0000283   
##  2          6     8       1.95e-10       0.883     3 0.00000810  
##  3          6    36       1.33e+ 1       0.140     6 0.000316    
##  4         14    27       5.43e- 6       0.280     5 0.00568     
##  5          5    21       5.33e+ 0       0.390     7 0.000829    
##  6         10    32       6.16e- 7       0.496     9 0.000000195 
##  7          7    38       2.16e- 3       0.967    12 0.000000757 
##  8          5    37       3.53e-10       0.307     4 0.00830     
##  9          3     9       2.98e- 9       0.668     4 0.0208      
## 10          7    29       2.83e- 4       0.446    14 0.0000000100
## # ... with 50 more rows

xgb_recipe <- recipe(y ~ ., data = xg_train) %>%
  step_dummy(all_nominal(), -all_outcomes())

xgb_recipe %>%
  prep() %>%
  bake(new_data = xg_train) 

## # A tibble: 3,391 x 72
##      age balance duration campaign pdays previous y     job_blue.collar
##    <int>   <int>    <int>    <int> <int>    <int> <fct>           <dbl>
##  1    30    1787       79        1    -1        0 no                  0
##  2    33    4789      220        1   339        4 no                  0
##  3    35     747      141        2   176        3 no                  0
##  4    36     307      341        1   330        2 no                  0
##  5    43     -88      313        1   147        2 no                  0
##  6    39    9374      273        1    -1        0 no                  0
##  7    43     264      113        2    -1        0 no                  0
##  8    20     502      261        1    -1        0 yes                 0
##  9    31     360       89        1   241        1 no                  1
## 10    40     194      189        2    -1        0 no                  0
## # ... with 3,381 more rows, and 64 more variables: job_entrepreneur <dbl>,
## #   job_housemaid <dbl>, job_management <dbl>, job_retired <dbl>,
## #   job_self.employed <dbl>, job_services <dbl>, job_student <dbl>,
## #   job_technician <dbl>, job_unemployed <dbl>, job_unknown <dbl>,
## #   marital_married <dbl>, marital_single <dbl>, education_secondary <dbl>,
## #   education_tertiary <dbl>, education_unknown <dbl>, default_yes <dbl>,
## #   housing_yes <dbl>, loan_yes <dbl>, contact_telephone <dbl>,
## #   contact_unknown <dbl>, day_X2 <dbl>, day_X3 <dbl>, day_X4 <dbl>,
## #   day_X5 <dbl>, day_X6 <dbl>, day_X7 <dbl>, day_X8 <dbl>, day_X9 <dbl>,
…
xgb_recipe <- recipe(y ~ ., data = xg_train) %>%
  step_dummy(all_nominal(), -all_outcomes())

xgb_recipe %>%
  prep() %>%
  bake(new_data = xg_train) 

## # A tibble: 3,391 x 51
##    duration pdays   age previous y     month_aug month_dec month_feb month_jan
##       <int> <int> <int>    <int> <fct>     <dbl>     <dbl>     <dbl>     <dbl>
##  1       79    -1    30        0 no            0         0         0         0
##  2      220   339    33        4 no            0         0         0         0
##  3      141   176    35        3 no            0         0         1         0
##  4      341   330    36        2 no            0         0         0         0
##  5      313   147    43        2 no            0         0         0         0
##  6      273    -1    39        0 no            0         0         0         0
##  7      113    -1    43        0 no            0         0         0         0
##  8      261    -1    20        0 yes           0         0         0         0
##  9       89   241    31        1 no            0         0         0         1
## 10      189    -1    40        0 no            1         0         0         0
## # ... with 3,381 more rows, and 42 more variables: month_jul <dbl>,
## #   month_jun <dbl>, month_mar <dbl>, month_may <dbl>, month_nov <dbl>,
## #   month_oct <dbl>, month_sep <dbl>, day_X2 <dbl>, day_X3 <dbl>, day_X4 <dbl>,
## #   day_X5 <dbl>, day_X6 <dbl>, day_X7 <dbl>, day_X8 <dbl>, day_X9 <dbl>,
## #   day_X10 <dbl>, day_X11 <dbl>, day_X12 <dbl>, day_X13 <dbl>, day_X14 <dbl>,
## #   day_X15 <dbl>, day_X16 <dbl>, day_X17 <dbl>, day_X18 <dbl>, day_X19 <dbl>,
## #   day_X20 <dbl>, day_X21 <dbl>, day_X22 <dbl>, day_X23 <dbl>, day_X24 <dbl>,
## #   day_X25 <dbl>, day_X26 <dbl>, day_X27 <dbl>, day_X28 <dbl>, day_X29 <dbl>,
## #   day_X30 <dbl>, day_X31 <dbl>, poutcome_other <dbl>, poutcome_success <dbl>,
…
